M48
; DRILL file {KiCad (5.1.10)-1} date 08/01/21 21:28:59
; FORMAT={-:-/ absolute / inch / decimal}
; #@! TF.CreationDate,2021-08-01T21:28:59-04:00
; #@! TF.GenerationSoftware,Kicad,Pcbnew,(5.1.10)-1
; #@! TF.FileFunction,NonPlated,1,2,NPTH
FMAT,2
INCH
T1C0.1378
T2C0.1575
%
G90
G05
T1
X3.0224Y-2.0469
X3.9673Y-2.0469
X8.2224Y-2.0969
X9.1673Y-2.0969
T2
X2.7469Y-2.8343
X8.2587Y-3.1492
T0
M30
